…
    ## Parsed with column specification:
    ## cols(
    ##   .default = col_double(),
    ##   name_rater1 = col_character(),
    ##   name_rater2 = col_character()
    ## )

    ## See spec(...) for full column specifications.

``` r
wide
```

    ## # A tibble: 48 x 20
    ##    name_rater1 area2d_camera1a area2d_camera1b area3d_camera1a
    ##          <chr>           <dbl>           <dbl>           <dbl>
    ##  1        John            2.03            2.08            2.51
    ##  2        Paul            0.30            0.42            0.51
    ##  3        John            4.24            4.46            5.53
    ##  4        John            2.87            3.08            4.03
    ##  5        John            5.60            5.83            8.13
    ##  6        Paul            8.09            7.99           12.81
    ##  7       Ringo            0.84            0.91            0.91
    ##  8       Ringo            1.05            1.03            1.20
    ##  9        John           30.96           31.50           48.62
    ## 10      George           21.61           21.96           29.99
    ## # ... with 38 more rows, and 16 more variables: area3d_camera1b <dbl>,
    ## #   volume_camera1a <dbl>, volume_camera1b <dbl>, volume_gel1 <dbl>,
    ## #   circum_camera1a <dbl>, circum_camera1b <dbl>, name_rater2 <chr>,
    ## #   area2d_camera2a <dbl>, area2d_camera2b <dbl>, area3d_camera2a <dbl>,
    ## #   area3d_camera2b <dbl>, volume_camera2a <dbl>, volume_camera2b <dbl>,
    ## #   volume_gel2 <dbl>, circum_camera2a <dbl>, circum_camera2b <dbl>
…
